^C:\USERS\YAJUN\DESKTOP\GRADUATION_PROJECT\GRADUATION_PROJECT\GRADUATION_PROJECT\ZOMBIE\01. PROJECT\ENGINE\STDAFX.CPP
/c /ZI /JMC /nologo /W3 /WX- /diagnostics:column /sdl /Od /D _DEBUG /D _LIB /D _UNICODE /D UNICODE /Gm- /EHsc /RTC1 /MDd /GS /fp:precise /permissive- /Zc:wchar_t /Zc:forScope /Zc:inline /Yc"stdafx.h" /Fp"X64\DEBUG\ENGINE_DEBUG.PCH" /Fo"X64\DEBUG\\" /Fd"X64\DEBUG\ENGINE.PDB" /Gd /TP /FC C:\USERS\YAJUN\DESKTOP\GRADUATION_PROJECT\GRADUATION_PROJECT\GRADUATION_PROJECT\ZOMBIE\01. PROJECT\ENGINE\STDAFX.CPP
^C:\USERS\YAJUN\DESKTOP\GRADUATION_PROJECT\GRADUATION_PROJECT\GRADUATION_PROJECT\ZOMBIE\01. PROJECT\ENGINE\ANIMATION2D.CPP
/c /ZI /JMC /nologo /W3 /WX- /diagnostics:column /sdl /Od /D _DEBUG /D _LIB /D _UNICODE /D UNICODE /Gm- /EHsc /RTC1 /MDd /GS /fp:precise /permissive- /Zc:wchar_t /Zc:forScope /Zc:inline /Yu"stdafx.h" /Fp"X64\DEBUG\ENGINE_DEBUG.PCH" /Fo"X64\DEBUG\\" /Fd"X64\DEBUG\ENGINE.PDB" /Gd /TP /FC C:\USERS\YAJUN\DESKTOP\GRADUATION_PROJECT\GRADUATION_PROJECT\GRADUATION_PROJECT\ZOMBIE\01. PROJECT\ENGINE\ANIMATION2D.CPP
^C:\USERS\YAJUN\DESKTOP\GRADUATION_PROJECT\GRADUATION_PROJECT\GRADUATION_PROJECT\ZOMBIE\01. PROJECT\ENGINE\ANIMATOR2D.CPP
/c /ZI /JMC /nologo /W3 /WX- /diagnostics:column /sdl /Od /D _DEBUG /D _LIB /D _UNICODE /D UNICODE /Gm- /EHsc /RTC1 /MDd /GS /fp:precise /permissive- /Zc:wchar_t /Zc:forScope /Zc:inline /Yu"stdafx.h" /Fp"X64\DEBUG\ENGINE_DEBUG.PCH" /Fo"X64\DEBUG\\" /Fd"X64\DEBUG\ENGINE.PDB" /Gd /TP /FC C:\USERS\YAJUN\DESKTOP\GRADUATION_PROJECT\GRADUATION_PROJECT\GRADUATION_PROJECT\ZOMBIE\01. PROJECT\ENGINE\ANIMATOR2D.CPP
^C:\USERS\YAJUN\DESKTOP\GRADUATION_PROJECT\GRADUATION_PROJECT\GRADUATION_PROJECT\ZOMBIE\01. PROJECT\ENGINE\ANIMATOR3D.CPP
/c /ZI /JMC /nologo /W3 /WX- /diagnostics:column /sdl /Od /D _DEBUG /D _LIB /D _UNICODE /D UNICODE /Gm- /EHsc /RTC1 /MDd /GS /fp:precise /permissive- /Zc:wchar_t /Zc:forScope /Zc:inline /Yu"stdafx.h" /Fp"X64\DEBUG\ENGINE_DEBUG.PCH" /Fo"X64\DEBUG\\" /Fd"X64\DEBUG\ENGINE.PDB" /Gd /TP /FC C:\USERS\YAJUN\DESKTOP\GRADUATION_PROJECT\GRADUATION_PROJECT\GRADUATION_PROJECT\ZOMBIE\01. PROJECT\ENGINE\ANIMATOR3D.CPP
^C:\USERS\YAJUN\DESKTOP\GRADUATION_PROJECT\GRADUATION_PROJECT\GRADUATION_PROJECT\ZOMBIE\01. PROJECT\ENGINE\BEHAVIOURTREE.CPP
/c /ZI /JMC /nologo /W3 /WX- /diagnostics:column /sdl /Od /D _DEBUG /D _LIB /D _UNICODE /D UNICODE /Gm- /EHsc /RTC1 /MDd /GS /fp:precise /permissive- /Zc:wchar_t /Zc:forScope /Zc:inline /Yu"stdafx.h" /Fp"X64\DEBUG\ENGINE_DEBUG.PCH" /Fo"X64\DEBUG\\" /Fd"X64\DEBUG\ENGINE.PDB" /Gd /TP /FC C:\USERS\YAJUN\DESKTOP\GRADUATION_PROJECT\GRADUATION_PROJECT\GRADUATION_PROJECT\ZOMBIE\01. PROJECT\ENGINE\BEHAVIOURTREE.CPP
^C:\USERS\YAJUN\DESKTOP\GRADUATION_PROJECT\GRADUATION_PROJECT\GRADUATION_PROJECT\ZOMBIE\01. PROJECT\ENGINE\BOSSSCRIPT.CPP
/c /ZI /JMC /nologo /W3 /WX- /diagnostics:column /sdl /Od /D _DEBUG /D _LIB /D _UNICODE /D UNICODE /Gm- /EHsc /RTC1 /MDd /GS /fp:precise /permissive- /Zc:wchar_t /Zc:forScope /Zc:inline /Yu"stdafx.h" /Fp"X64\DEBUG\ENGINE_DEBUG.PCH" /Fo"X64\DEBUG\\" /Fd"X64\DEBUG\ENGINE.PDB" /Gd /TP /FC C:\USERS\YAJUN\DESKTOP\GRADUATION_PROJECT\GRADUATION_PROJECT\GRADUATION_PROJECT\ZOMBIE\01. PROJECT\ENGINE\BOSSSCRIPT.CPP
^C:\USERS\YAJUN\DESKTOP\GRADUATION_PROJECT\GRADUATION_PROJECT\GRADUATION_PROJECT\ZOMBIE\01. PROJECT\ENGINE\BPARTICLESYSTEM.CPP
/c /ZI /JMC /nologo /W3 /WX- /diagnostics:column /sdl /Od /D _DEBUG /D _LIB /D _UNICODE /D UNICODE /Gm- /EHsc /RTC1 /MDd /GS /fp:precise /permissive- /Zc:wchar_t /Zc:forScope /Zc:inline /Yu"stdafx.h" /Fp"X64\DEBUG\ENGINE_DEBUG.PCH" /Fo"X64\DEBUG\\" /Fd"X64\DEBUG\ENGINE.PDB" /Gd /TP /FC C:\USERS\YAJUN\DESKTOP\GRADUATION_PROJECT\GRADUATION_PROJECT\GRADUATION_PROJECT\ZOMBIE\01. PROJECT\ENGINE\BPARTICLESYSTEM.CPP
^C:\USERS\YAJUN\DESKTOP\GRADUATION_PROJECT\GRADUATION_PROJECT\GRADUATION_PROJECT\ZOMBIE\01. PROJECT\ENGINE\BULLETSCRIPT.CPP
/c /ZI /JMC /nologo /W3 /WX- /diagnostics:column /sdl /Od /D _DEBUG /D _LIB /D _UNICODE /D UNICODE /Gm- /EHsc /RTC1 /MDd /GS /fp:precise /permissive- /Zc:wchar_t /Zc:forScope /Zc:inline /Yu"stdafx.h" /Fp"X64\DEBUG\ENGINE_DEBUG.PCH" /Fo"X64\DEBUG\\" /Fd"X64\DEBUG\ENGINE.PDB" /Gd /TP /FC C:\USERS\YAJUN\DESKTOP\GRADUATION_PROJECT\GRADUATION_PROJECT\GRADUATION_PROJECT\ZOMBIE\01. PROJECT\ENGINE\BULLETSCRIPT.CPP
^C:\USERS\YAJUN\DESKTOP\GRADUATION_PROJECT\GRADUATION_PROJECT\GRADUATION_PROJECT\ZOMBIE\01. PROJECT\ENGINE\CAMERA.CPP
/c /ZI /JMC /nologo /W3 /WX- /diagnostics:column /sdl /Od /D _DEBUG /D _LIB /D _UNICODE /D UNICODE /Gm- /EHsc /RTC1 /MDd /GS /fp:precise /permissive- /Zc:wchar_t /Zc:forScope /Zc:inline /Yu"stdafx.h" /Fp"X64\DEBUG\ENGINE_DEBUG.PCH" /Fo"X64\DEBUG\\" /Fd"X64\DEBUG\ENGINE.PDB" /Gd /TP /FC C:\USERS\YAJUN\DESKTOP\GRADUATION_PROJECT\GRADUATION_PROJECT\GRADUATION_PROJECT\ZOMBIE\01. PROJECT\ENGINE\CAMERA.CPP
^C:\USERS\YAJUN\DESKTOP\GRADUATION_PROJECT\GRADUATION_PROJECT\GRADUATION_PROJECT\ZOMBIE\01. PROJECT\ENGINE\COLLIDER2D.CPP
/c /ZI /JMC /nologo /W3 /WX- /diagnostics:column /sdl /Od /D _DEBUG /D _LIB /D _UNICODE /D UNICODE /Gm- /EHsc /RTC1 /MDd /GS /fp:precise /permissive- /Zc:wchar_t /Zc:forScope /Zc:inline /Yu"stdafx.h" /Fp"X64\DEBUG\ENGINE_DEBUG.PCH" /Fo"X64\DEBUG\\" /Fd"X64\DEBUG\ENGINE.PDB" /Gd /TP /FC C:\USERS\YAJUN\DESKTOP\GRADUATION_PROJECT\GRADUATION_PROJECT\GRADUATION_PROJECT\ZOMBIE\01. PROJECT\ENGINE\COLLIDER2D.CPP
^C:\USERS\YAJUN\DESKTOP\GRADUATION_PROJECT\GRADUATION_PROJECT\GRADUATION_PROJECT\ZOMBIE\01. PROJECT\ENGINE\COLLISIONMGR.CPP
/c /ZI /JMC /nologo /W3 /WX- /diagnostics:column /sdl /Od /D _DEBUG /D _LIB /D _UNICODE /D UNICODE /Gm- /EHsc /RTC1 /MDd /GS /fp:precise /permissive- /Zc:wchar_t /Zc:forScope /Zc:inline /Yu"stdafx.h" /Fp"X64\DEBUG\ENGINE_DEBUG.PCH" /Fo"X64\DEBUG\\" /Fd"X64\DEBUG\ENGINE.PDB" /Gd /TP /FC C:\USERS\YAJUN\DESKTOP\GRADUATION_PROJECT\GRADUATION_PROJECT\GRADUATION_PROJECT\ZOMBIE\01. PROJECT\ENGINE\COLLISIONMGR.CPP
^C:\USERS\YAJUN\DESKTOP\GRADUATION_PROJECT\GRADUATION_PROJECT\GRADUATION_PROJECT\ZOMBIE\01. PROJECT\ENGINE\COMPONENT.CPP
/c /ZI /JMC /nologo /W3 /WX- /diagnostics:column /sdl /Od /D _DEBUG /D _LIB /D _UNICODE /D UNICODE /Gm- /EHsc /RTC1 /MDd /GS /fp:precise /permissive- /Zc:wchar_t /Zc:forScope /Zc:inline /Yu"stdafx.h" /Fp"X64\DEBUG\ENGINE_DEBUG.PCH" /Fo"X64\DEBUG\\" /Fd"X64\DEBUG\ENGINE.PDB" /Gd /TP /FC C:\USERS\YAJUN\DESKTOP\GRADUATION_PROJECT\GRADUATION_PROJECT\GRADUATION_PROJECT\ZOMBIE\01. PROJECT\ENGINE\COMPONENT.CPP
^C:\USERS\YAJUN\DESKTOP\GRADUATION_PROJECT\GRADUATION_PROJECT\GRADUATION_PROJECT\ZOMBIE\01. PROJECT\ENGINE\CONSTANTBUFFER.CPP
/c /ZI /JMC /nologo /W3 /WX- /diagnostics:column /sdl /Od /D _DEBUG /D _LIB /D _UNICODE /D UNICODE /Gm- /EHsc /RTC1 /MDd /GS /fp:precise /permissive- /Zc:wchar_t /Zc:forScope /Zc:inline /Yu"stdafx.h" /Fp"X64\DEBUG\ENGINE_DEBUG.PCH" /Fo"X64\DEBUG\\" /Fd"X64\DEBUG\ENGINE.PDB" /Gd /TP /FC C:\USERS\YAJUN\DESKTOP\GRADUATION_PROJECT\GRADUATION_PROJECT\GRADUATION_PROJECT\ZOMBIE\01. PROJECT\ENGINE\CONSTANTBUFFER.CPP
^C:\USERS\YAJUN\DESKTOP\GRADUATION_PROJECT\GRADUATION_PROJECT\GRADUATION_PROJECT\ZOMBIE\01. PROJECT\ENGINE\CORE.CPP
/c /ZI /JMC /nologo /W3 /WX- /diagnostics:column /sdl /Od /D _DEBUG /D _LIB /D _UNICODE /D UNICODE /Gm- /EHsc /RTC1 /MDd /GS /fp:precise /permissive- /Zc:wchar_t /Zc:forScope /Zc:inline /Yu"stdafx.h" /Fp"X64\DEBUG\ENGINE_DEBUG.PCH" /Fo"X64\DEBUG\\" /Fd"X64\DEBUG\ENGINE.PDB" /Gd /TP /FC C:\USERS\YAJUN\DESKTOP\GRADUATION_PROJECT\GRADUATION_PROJECT\GRADUATION_PROJECT\ZOMBIE\01. PROJECT\ENGINE\CORE.CPP
^C:\USERS\YAJUN\DESKTOP\GRADUATION_PROJECT\GRADUATION_PROJECT\GRADUATION_PROJECT\ZOMBIE\01. PROJECT\ENGINE\DESC.CPP
/c /ZI /JMC /nologo /W3 /WX- /diagnostics:column /sdl /Od /D _DEBUG /D _LIB /D _UNICODE /D UNICODE /Gm- /EHsc /RTC1 /MDd /GS /fp:precise /permissive- /Zc:wchar_t /Zc:forScope /Zc:inline /Yu"stdafx.h" /Fp"X64\DEBUG\ENGINE_DEBUG.PCH" /Fo"X64\DEBUG\\" /Fd"X64\DEBUG\ENGINE.PDB" /Gd /TP /FC C:\USERS\YAJUN\DESKTOP\GRADUATION_PROJECT\GRADUATION_PROJECT\GRADUATION_PROJECT\ZOMBIE\01. PROJECT\ENGINE\DESC.CPP
^C:\USERS\YAJUN\DESKTOP\GRADUATION_PROJECT\GRADUATION_PROJECT\GRADUATION_PROJECT\ZOMBIE\01. PROJECT\ENGINE\DEVICE.CPP
/c /ZI /JMC /nologo /W3 /WX- /diagnostics:column /sdl /Od /D _DEBUG /D _LIB /D _UNICODE /D UNICODE /Gm- /EHsc /RTC1 /MDd /GS /fp:precise /permissive- /Zc:wchar_t /Zc:forScope /Zc:inline /Yu"stdafx.h" /Fp"X64\DEBUG\ENGINE_DEBUG.PCH" /Fo"X64\DEBUG\\" /Fd"X64\DEBUG\ENGINE.PDB" /Gd /TP /FC C:\USERS\YAJUN\DESKTOP\GRADUATION_PROJECT\GRADUATION_PROJECT\GRADUATION_PROJECT\ZOMBIE\01. PROJECT\ENGINE\DEVICE.CPP
^C:\USERS\YAJUN\DESKTOP\GRADUATION_PROJECT\GRADUATION_PROJECT\GRADUATION_PROJECT\ZOMBIE\01. PROJECT\ENGINE\ENTITY.CPP
/c /ZI /JMC /nologo /W3 /WX- /diagnostics:column /sdl /Od /D _DEBUG /D _LIB /D _UNICODE /D UNICODE /Gm- /EHsc /RTC1 /MDd /GS /fp:precise /permissive- /Zc:wchar_t /Zc:forScope /Zc:inline /Yu"stdafx.h" /Fp"X64\DEBUG\ENGINE_DEBUG.PCH" /Fo"X64\DEBUG\\" /Fd"X64\DEBUG\ENGINE.PDB" /Gd /TP /FC C:\USERS\YAJUN\DESKTOP\GRADUATION_PROJECT\GRADUATION_PROJECT\GRADUATION_PROJECT\ZOMBIE\01. PROJECT\ENGINE\ENTITY.CPP
^C:\USERS\YAJUN\DESKTOP\GRADUATION_PROJECT\GRADUATION_PROJECT\GRADUATION_PROJECT\ZOMBIE\01. PROJECT\ENGINE\EVENTMGR.CPP
/c /ZI /JMC /nologo /W3 /WX- /diagnostics:column /sdl /Od /D _DEBUG /D _LIB /D _UNICODE /D UNICODE /Gm- /EHsc /RTC1 /MDd /GS /fp:precise /permissive- /Zc:wchar_t /Zc:forScope /Zc:inline /Yu"stdafx.h" /Fp"X64\DEBUG\ENGINE_DEBUG.PCH" /Fo"X64\DEBUG\\" /Fd"X64\DEBUG\ENGINE.PDB" /Gd /TP /FC C:\USERS\YAJUN\DESKTOP\GRADUATION_PROJECT\GRADUATION_PROJECT\GRADUATION_PROJECT\ZOMBIE\01. PROJECT\ENGINE\EVENTMGR.CPP
^C:\USERS\YAJUN\DESKTOP\GRADUATION_PROJECT\GRADUATION_PROJECT\GRADUATION_PROJECT\ZOMBIE\01. PROJECT\ENGINE\FBXLOADER.CPP
/c /ZI /JMC /nologo /W3 /WX- /diagnostics:column /sdl /Od /D _DEBUG /D _LIB /D _UNICODE /D UNICODE /Gm- /EHsc /RTC1 /MDd /GS /fp:precise /permissive- /Zc:wchar_t /Zc:forScope /Zc:inline /Yu"stdafx.h" /Fp"X64\DEBUG\ENGINE_DEBUG.PCH" /Fo"X64\DEBUG\\" /Fd"X64\DEBUG\ENGINE.PDB" /Gd /TP /FC C:\USERS\YAJUN\DESKTOP\GRADUATION_PROJECT\GRADUATION_PROJECT\GRADUATION_PROJECT\ZOMBIE\01. PROJECT\ENGINE\FBXLOADER.CPP
^C:\USERS\YAJUN\DESKTOP\GRADUATION_PROJECT\GRADUATION_PROJECT\GRADUATION_PROJECT\ZOMBIE\01. PROJECT\ENGINE\FPARTICLESYSTEM.CPP
/c /ZI /JMC /nologo /W3 /WX- /diagnostics:column /sdl /Od /D _DEBUG /D _LIB /D _UNICODE /D UNICODE /Gm- /EHsc /RTC1 /MDd /GS /fp:precise /permissive- /Zc:wchar_t /Zc:forScope /Zc:inline /Yu"stdafx.h" /Fp"X64\DEBUG\ENGINE_DEBUG.PCH" /Fo"X64\DEBUG\\" /Fd"X64\DEBUG\ENGINE.PDB" /Gd /TP /FC C:\USERS\YAJUN\DESKTOP\GRADUATION_PROJECT\GRADUATION_PROJECT\GRADUATION_PROJECT\ZOMBIE\01. PROJECT\ENGINE\FPARTICLESYSTEM.CPP
^C:\USERS\YAJUN\DESKTOP\GRADUATION_PROJECT\GRADUATION_PROJECT\GRADUATION_PROJECT\ZOMBIE\01. PROJECT\ENGINE\FRUSTUM.CPP
/c /ZI /JMC /nologo /W3 /WX- /diagnostics:column /sdl /Od /D _DEBUG /D _LIB /D _UNICODE /D UNICODE /Gm- /EHsc /RTC1 /MDd /GS /fp:precise /permissive- /Zc:wchar_t /Zc:forScope /Zc:inline /Yu"stdafx.h" /Fp"X64\DEBUG\ENGINE_DEBUG.PCH" /Fo"X64\DEBUG\\" /Fd"X64\DEBUG\ENGINE.PDB" /Gd /TP /FC C:\USERS\YAJUN\DESKTOP\GRADUATION_PROJECT\GRADUATION_PROJECT\GRADUATION_PROJECT\ZOMBIE\01. PROJECT\ENGINE\FRUSTUM.CPP
^C:\USERS\YAJUN\DESKTOP\GRADUATION_PROJECT\GRADUATION_PROJECT\GRADUATION_PROJECT\ZOMBIE\01. PROJECT\ENGINE\FUNC.CPP
/c /ZI /JMC /nologo /W3 /WX- /diagnostics:column /sdl /Od /D _DEBUG /D _LIB /D _UNICODE /D UNICODE /Gm- /EHsc /RTC1 /MDd /GS /fp:precise /permissive- /Zc:wchar_t /Zc:forScope /Zc:inline /Yu"stdafx.h" /Fp"X64\DEBUG\ENGINE_DEBUG.PCH" /Fo"X64\DEBUG\\" /Fd"X64\DEBUG\ENGINE.PDB" /Gd /TP /FC C:\USERS\YAJUN\DESKTOP\GRADUATION_PROJECT\GRADUATION_PROJECT\GRADUATION_PROJECT\ZOMBIE\01. PROJECT\ENGINE\FUNC.CPP
^C:\USERS\YAJUN\DESKTOP\GRADUATION_PROJECT\GRADUATION_PROJECT\GRADUATION_PROJECT\ZOMBIE\01. PROJECT\ENGINE\GAMEMGR.CPP
/c /ZI /JMC /nologo /W3 /WX- /diagnostics:column /sdl /Od /D _DEBUG /D _LIB /D _UNICODE /D UNICODE /Gm- /EHsc /RTC1 /MDd /GS /fp:precise /permissive- /Zc:wchar_t /Zc:forScope /Zc:inline /Yu"stdafx.h" /Fp"X64\DEBUG\ENGINE_DEBUG.PCH" /Fo"X64\DEBUG\\" /Fd"X64\DEBUG\ENGINE.PDB" /Gd /TP /FC C:\USERS\YAJUN\DESKTOP\GRADUATION_PROJECT\GRADUATION_PROJECT\GRADUATION_PROJECT\ZOMBIE\01. PROJECT\ENGINE\GAMEMGR.CPP
^C:\USERS\YAJUN\DESKTOP\GRADUATION_PROJECT\GRADUATION_PROJECT\GRADUATION_PROJECT\ZOMBIE\01. PROJECT\ENGINE\GAMEOBJECT.CPP
/c /ZI /JMC /nologo /W3 /WX- /diagnostics:column /sdl /Od /D _DEBUG /D _LIB /D _UNICODE /D UNICODE /Gm- /EHsc /RTC1 /MDd /GS /fp:precise /permissive- /Zc:wchar_t /Zc:forScope /Zc:inline /Yu"stdafx.h" /Fp"X64\DEBUG\ENGINE_DEBUG.PCH" /Fo"X64\DEBUG\\" /Fd"X64\DEBUG\ENGINE.PDB" /Gd /TP /FC C:\USERS\YAJUN\DESKTOP\GRADUATION_PROJECT\GRADUATION_PROJECT\GRADUATION_PROJECT\ZOMBIE\01. PROJECT\ENGINE\GAMEOBJECT.CPP
^C:\USERS\YAJUN\DESKTOP\GRADUATION_PROJECT\GRADUATION_PROJECT\GRADUATION_PROJECT\ZOMBIE\01. PROJECT\ENGINE\GLOBAL.CPP
/c /ZI /JMC /nologo /W3 /WX- /diagnostics:column /sdl /Od /D _DEBUG /D _LIB /D _UNICODE /D UNICODE /Gm- /EHsc /RTC1 /MDd /GS /fp:precise /permissive- /Zc:wchar_t /Zc:forScope /Zc:inline /Yu"stdafx.h" /Fp"X64\DEBUG\ENGINE_DEBUG.PCH" /Fo"X64\DEBUG\\" /Fd"X64\DEBUG\ENGINE.PDB" /Gd /TP /FC C:\USERS\YAJUN\DESKTOP\GRADUATION_PROJECT\GRADUATION_PROJECT\GRADUATION_PROJECT\ZOMBIE\01. PROJECT\ENGINE\GLOBAL.CPP
^C:\USERS\YAJUN\DESKTOP\GRADUATION_PROJECT\GRADUATION_PROJECT\GRADUATION_PROJECT\ZOMBIE\01. PROJECT\ENGINE\GRIDSCRIPT.CPP
/c /ZI /JMC /nologo /W3 /WX- /diagnostics:column /sdl /Od /D _DEBUG /D _LIB /D _UNICODE /D UNICODE /Gm- /EHsc /RTC1 /MDd /GS /fp:precise /permissive- /Zc:wchar_t /Zc:forScope /Zc:inline /Yu"stdafx.h" /Fp"X64\DEBUG\ENGINE_DEBUG.PCH" /Fo"X64\DEBUG\\" /Fd"X64\DEBUG\ENGINE.PDB" /Gd /TP /FC C:\USERS\YAJUN\DESKTOP\GRADUATION_PROJECT\GRADUATION_PROJECT\GRADUATION_PROJECT\ZOMBIE\01. PROJECT\ENGINE\GRIDSCRIPT.CPP
^C:\USERS\YAJUN\DESKTOP\GRADUATION_PROJECT\GRADUATION_PROJECT\GRADUATION_PROJECT\ZOMBIE\01. PROJECT\ENGINE\INSTANCINGBUFFER.CPP
/c /ZI /JMC /nologo /W3 /WX- /diagnostics:column /sdl /Od /D _DEBUG /D _LIB /D _UNICODE /D UNICODE /Gm- /EHsc /RTC1 /MDd /GS /fp:precise /permissive- /Zc:wchar_t /Zc:forScope /Zc:inline /Yu"stdafx.h" /Fp"X64\DEBUG\ENGINE_DEBUG.PCH" /Fo"X64\DEBUG\\" /Fd"X64\DEBUG\ENGINE.PDB" /Gd /TP /FC C:\USERS\YAJUN\DESKTOP\GRADUATION_PROJECT\GRADUATION_PROJECT\GRADUATION_PROJECT\ZOMBIE\01. PROJECT\ENGINE\INSTANCINGBUFFER.CPP
^C:\USERS\YAJUN\DESKTOP\GRADUATION_PROJECT\GRADUATION_PROJECT\GRADUATION_PROJECT\ZOMBIE\01. PROJECT\ENGINE\INSTANCINGMGR.CPP
/c /ZI /JMC /nologo /W3 /WX- /diagnostics:column /sdl /Od /D _DEBUG /D _LIB /D _UNICODE /D UNICODE /Gm- /EHsc /RTC1 /MDd /GS /fp:precise /permissive- /Zc:wchar_t /Zc:forScope /Zc:inline /Yu"stdafx.h" /Fp"X64\DEBUG\ENGINE_DEBUG.PCH" /Fo"X64\DEBUG\\" /Fd"X64\DEBUG\ENGINE.PDB" /Gd /TP /FC C:\USERS\YAJUN\DESKTOP\GRADUATION_PROJECT\GRADUATION_PROJECT\GRADUATION_PROJECT\ZOMBIE\01. PROJECT\ENGINE\INSTANCINGMGR.CPP
^C:\USERS\YAJUN\DESKTOP\GRADUATION_PROJECT\GRADUATION_PROJECT\GRADUATION_PROJECT\ZOMBIE\01. PROJECT\ENGINE\IPARTICLESYSTEM.CPP
/c /ZI /JMC /nologo /W3 /WX- /diagnostics:column /sdl /Od /D _DEBUG /D _LIB /D _UNICODE /D UNICODE /Gm- /EHsc /RTC1 /MDd /GS /fp:precise /permissive- /Zc:wchar_t /Zc:forScope /Zc:inline /Yu"stdafx.h" /Fp"X64\DEBUG\ENGINE_DEBUG.PCH" /Fo"X64\DEBUG\\" /Fd"X64\DEBUG\ENGINE.PDB" /Gd /TP /FC C:\USERS\YAJUN\DESKTOP\GRADUATION_PROJECT\GRADUATION_PROJECT\GRADUATION_PROJECT\ZOMBIE\01. PROJECT\ENGINE\IPARTICLESYSTEM.CPP
^C:\USERS\YAJUN\DESKTOP\GRADUATION_PROJECT\GRADUATION_PROJECT\GRADUATION_PROJECT\ZOMBIE\01. PROJECT\ENGINE\ITEMSCRIPT.CPP
/c /ZI /JMC /nologo /W3 /WX- /diagnostics:column /sdl /Od /D _DEBUG /D _LIB /D _UNICODE /D UNICODE /Gm- /EHsc /RTC1 /MDd /GS /fp:precise /permissive- /Zc:wchar_t /Zc:forScope /Zc:inline /Yu"stdafx.h" /Fp"X64\DEBUG\ENGINE_DEBUG.PCH" /Fo"X64\DEBUG\\" /Fd"X64\DEBUG\ENGINE.PDB" /Gd /TP /FC C:\USERS\YAJUN\DESKTOP\GRADUATION_PROJECT\GRADUATION_PROJECT\GRADUATION_PROJECT\ZOMBIE\01. PROJECT\ENGINE\ITEMSCRIPT.CPP
^C:\USERS\YAJUN\DESKTOP\GRADUATION_PROJECT\GRADUATION_PROJECT\GRADUATION_PROJECT\ZOMBIE\01. PROJECT\ENGINE\KEYMGR.CPP
/c /ZI /JMC /nologo /W3 /WX- /diagnostics:column /sdl /Od /D _DEBUG /D _LIB /D _UNICODE /D UNICODE /Gm- /EHsc /RTC1 /MDd /GS /fp:precise /permissive- /Zc:wchar_t /Zc:forScope /Zc:inline /Yu"stdafx.h" /Fp"X64\DEBUG\ENGINE_DEBUG.PCH" /Fo"X64\DEBUG\\" /Fd"X64\DEBUG\ENGINE.PDB" /Gd /TP /FC C:\USERS\YAJUN\DESKTOP\GRADUATION_PROJECT\GRADUATION_PROJECT\GRADUATION_PROJECT\ZOMBIE\01. PROJECT\ENGINE\KEYMGR.CPP
^C:\USERS\YAJUN\DESKTOP\GRADUATION_PROJECT\GRADUATION_PROJECT\GRADUATION_PROJECT\ZOMBIE\01. PROJECT\ENGINE\LAYER.CPP
/c /ZI /JMC /nologo /W3 /WX- /diagnostics:column /sdl /Od /D _DEBUG /D _LIB /D _UNICODE /D UNICODE /Gm- /EHsc /RTC1 /MDd /GS /fp:precise /permissive- /Zc:wchar_t /Zc:forScope /Zc:inline /Yu"stdafx.h" /Fp"X64\DEBUG\ENGINE_DEBUG.PCH" /Fo"X64\DEBUG\\" /Fd"X64\DEBUG\ENGINE.PDB" /Gd /TP /FC C:\USERS\YAJUN\DESKTOP\GRADUATION_PROJECT\GRADUATION_PROJECT\GRADUATION_PROJECT\ZOMBIE\01. PROJECT\ENGINE\LAYER.CPP
^C:\USERS\YAJUN\DESKTOP\GRADUATION_PROJECT\GRADUATION_PROJECT\GRADUATION_PROJECT\ZOMBIE\01. PROJECT\ENGINE\LIGHT2D.CPP
/c /ZI /JMC /nologo /W3 /WX- /diagnostics:column /sdl /Od /D _DEBUG /D _LIB /D _UNICODE /D UNICODE /Gm- /EHsc /RTC1 /MDd /GS /fp:precise /permissive- /Zc:wchar_t /Zc:forScope /Zc:inline /Yu"stdafx.h" /Fp"X64\DEBUG\ENGINE_DEBUG.PCH" /Fo"X64\DEBUG\\" /Fd"X64\DEBUG\ENGINE.PDB" /Gd /TP /FC C:\USERS\YAJUN\DESKTOP\GRADUATION_PROJECT\GRADUATION_PROJECT\GRADUATION_PROJECT\ZOMBIE\01. PROJECT\ENGINE\LIGHT2D.CPP
^C:\USERS\YAJUN\DESKTOP\GRADUATION_PROJECT\GRADUATION_PROJECT\GRADUATION_PROJECT\ZOMBIE\01. PROJECT\ENGINE\LIGHT3D.CPP
/c /ZI /JMC /nologo /W3 /WX- /diagnostics:column /sdl /Od /D _DEBUG /D _LIB /D _UNICODE /D UNICODE /Gm- /EHsc /RTC1 /MDd /GS /fp:precise /permissive- /Zc:wchar_t /Zc:forScope /Zc:inline /Yu"stdafx.h" /Fp"X64\DEBUG\ENGINE_DEBUG.PCH" /Fo"X64\DEBUG\\" /Fd"X64\DEBUG\ENGINE.PDB" /Gd /TP /FC C:\USERS\YAJUN\DESKTOP\GRADUATION_PROJECT\GRADUATION_PROJECT\GRADUATION_PROJECT\ZOMBIE\01. PROJECT\ENGINE\LIGHT3D.CPP
^C:\USERS\YAJUN\DESKTOP\GRADUATION_PROJECT\GRADUATION_PROJECT\GRADUATION_PROJECT\ZOMBIE\01. PROJECT\ENGINE\MATERIAL.CPP
/c /ZI /JMC /nologo /W3 /WX- /diagnostics:column /sdl /Od /D _DEBUG /D _LIB /D _UNICODE /D UNICODE /Gm- /EHsc /RTC1 /MDd /GS /fp:precise /permissive- /Zc:wchar_t /Zc:forScope /Zc:inline /Yu"stdafx.h" /Fp"X64\DEBUG\ENGINE_DEBUG.PCH" /Fo"X64\DEBUG\\" /Fd"X64\DEBUG\ENGINE.PDB" /Gd /TP /FC C:\USERS\YAJUN\DESKTOP\GRADUATION_PROJECT\GRADUATION_PROJECT\GRADUATION_PROJECT\ZOMBIE\01. PROJECT\ENGINE\MATERIAL.CPP
^C:\USERS\YAJUN\DESKTOP\GRADUATION_PROJECT\GRADUATION_PROJECT\GRADUATION_PROJECT\ZOMBIE\01. PROJECT\ENGINE\MESH.CPP
/c /ZI /JMC /nologo /W3 /WX- /diagnostics:column /sdl /Od /D _DEBUG /D _LIB /D _UNICODE /D UNICODE /Gm- /EHsc /RTC1 /MDd /GS /fp:precise /permissive- /Zc:wchar_t /Zc:forScope /Zc:inline /Yu"stdafx.h" /Fp"X64\DEBUG\ENGINE_DEBUG.PCH" /Fo"X64\DEBUG\\" /Fd"X64\DEBUG\ENGINE.PDB" /Gd /TP /FC C:\USERS\YAJUN\DESKTOP\GRADUATION_PROJECT\GRADUATION_PROJECT\GRADUATION_PROJECT\ZOMBIE\01. PROJECT\ENGINE\MESH.CPP
^C:\USERS\YAJUN\DESKTOP\GRADUATION_PROJECT\GRADUATION_PROJECT\GRADUATION_PROJECT\ZOMBIE\01. PROJECT\ENGINE\MESHDATA.CPP
/c /ZI /JMC /nologo /W3 /WX- /diagnostics:column /sdl /Od /D _DEBUG /D _LIB /D _UNICODE /D UNICODE /Gm- /EHsc /RTC1 /MDd /GS /fp:precise /permissive- /Zc:wchar_t /Zc:forScope /Zc:inline /Yu"stdafx.h" /Fp"X64\DEBUG\ENGINE_DEBUG.PCH" /Fo"X64\DEBUG\\" /Fd"X64\DEBUG\ENGINE.PDB" /Gd /TP /FC C:\USERS\YAJUN\DESKTOP\GRADUATION_PROJECT\GRADUATION_PROJECT\GRADUATION_PROJECT\ZOMBIE\01. PROJECT\ENGINE\MESHDATA.CPP
^C:\USERS\YAJUN\DESKTOP\GRADUATION_PROJECT\GRADUATION_PROJECT\GRADUATION_PROJECT\ZOMBIE\01. PROJECT\ENGINE\MESHRENDER.CPP
/c /ZI /JMC /nologo /W3 /WX- /diagnostics:column /sdl /Od /D _DEBUG /D _LIB /D _UNICODE /D UNICODE /Gm- /EHsc /RTC1 /MDd /GS /fp:precise /permissive- /Zc:wchar_t /Zc:forScope /Zc:inline /Yu"stdafx.h" /Fp"X64\DEBUG\ENGINE_DEBUG.PCH" /Fo"X64\DEBUG\\" /Fd"X64\DEBUG\ENGINE.PDB" /Gd /TP /FC C:\USERS\YAJUN\DESKTOP\GRADUATION_PROJECT\GRADUATION_PROJECT\GRADUATION_PROJECT\ZOMBIE\01. PROJECT\ENGINE\MESHRENDER.CPP
^C:\USERS\YAJUN\DESKTOP\GRADUATION_PROJECT\GRADUATION_PROJECT\GRADUATION_PROJECT\ZOMBIE\01. PROJECT\ENGINE\MINIMONSTERSCRIPT.CPP
/c /ZI /JMC /nologo /W3 /WX- /diagnostics:column /sdl /Od /D _DEBUG /D _LIB /D _UNICODE /D UNICODE /Gm- /EHsc /RTC1 /MDd /GS /fp:precise /permissive- /Zc:wchar_t /Zc:forScope /Zc:inline /Yu"stdafx.h" /Fp"X64\DEBUG\ENGINE_DEBUG.PCH" /Fo"X64\DEBUG\\" /Fd"X64\DEBUG\ENGINE.PDB" /Gd /TP /FC C:\USERS\YAJUN\DESKTOP\GRADUATION_PROJECT\GRADUATION_PROJECT\GRADUATION_PROJECT\ZOMBIE\01. PROJECT\ENGINE\MINIMONSTERSCRIPT.CPP
^C:\USERS\YAJUN\DESKTOP\GRADUATION_PROJECT\GRADUATION_PROJECT\GRADUATION_PROJECT\ZOMBIE\01. PROJECT\ENGINE\MONSTERSCRIPT.CPP
/c /ZI /JMC /nologo /W3 /WX- /diagnostics:column /sdl /Od /D _DEBUG /D _LIB /D _UNICODE /D UNICODE /Gm- /EHsc /RTC1 /MDd /GS /fp:precise /permissive- /Zc:wchar_t /Zc:forScope /Zc:inline /Yu"stdafx.h" /Fp"X64\DEBUG\ENGINE_DEBUG.PCH" /Fo"X64\DEBUG\\" /Fd"X64\DEBUG\ENGINE.PDB" /Gd /TP /FC C:\USERS\YAJUN\DESKTOP\GRADUATION_PROJECT\GRADUATION_PROJECT\GRADUATION_PROJECT\ZOMBIE\01. PROJECT\ENGINE\MONSTERSCRIPT.CPP
^C:\USERS\YAJUN\DESKTOP\GRADUATION_PROJECT\GRADUATION_PROJECT\GRADUATION_PROJECT\ZOMBIE\01. PROJECT\ENGINE\MRT.CPP
/c /ZI /JMC /nologo /W3 /WX- /diagnostics:column /sdl /Od /D _DEBUG /D _LIB /D _UNICODE /D UNICODE /Gm- /EHsc /RTC1 /MDd /GS /fp:precise /permissive- /Zc:wchar_t /Zc:forScope /Zc:inline /Yu"stdafx.h" /Fp"X64\DEBUG\ENGINE_DEBUG.PCH" /Fo"X64\DEBUG\\" /Fd"X64\DEBUG\ENGINE.PDB" /Gd /TP /FC C:\USERS\YAJUN\DESKTOP\GRADUATION_PROJECT\GRADUATION_PROJECT\GRADUATION_PROJECT\ZOMBIE\01. PROJECT\ENGINE\MRT.CPP
^C:\USERS\YAJUN\DESKTOP\GRADUATION_PROJECT\GRADUATION_PROJECT\GRADUATION_PROJECT\ZOMBIE\01. PROJECT\ENGINE\PARTICLESYSTEM.CPP
/c /ZI /JMC /nologo /W3 /WX- /diagnostics:column /sdl /Od /D _DEBUG /D _LIB /D _UNICODE /D UNICODE /Gm- /EHsc /RTC1 /MDd /GS /fp:precise /permissive- /Zc:wchar_t /Zc:forScope /Zc:inline /Yu"stdafx.h" /Fp"X64\DEBUG\ENGINE_DEBUG.PCH" /Fo"X64\DEBUG\\" /Fd"X64\DEBUG\ENGINE.PDB" /Gd /TP /FC C:\USERS\YAJUN\DESKTOP\GRADUATION_PROJECT\GRADUATION_PROJECT\GRADUATION_PROJECT\ZOMBIE\01. PROJECT\ENGINE\PARTICLESYSTEM.CPP
^C:\USERS\YAJUN\DESKTOP\GRADUATION_PROJECT\GRADUATION_PROJECT\GRADUATION_PROJECT\ZOMBIE\01. PROJECT\ENGINE\PATHMGR.CPP
/c /ZI /JMC /nologo /W3 /WX- /diagnostics:column /sdl /Od /D _DEBUG /D _LIB /D _UNICODE /D UNICODE /Gm- /EHsc /RTC1 /MDd /GS /fp:precise /permissive- /Zc:wchar_t /Zc:forScope /Zc:inline /Yu"stdafx.h" /Fp"X64\DEBUG\ENGINE_DEBUG.PCH" /Fo"X64\DEBUG\\" /Fd"X64\DEBUG\ENGINE.PDB" /Gd /TP /FC C:\USERS\YAJUN\DESKTOP\GRADUATION_PROJECT\GRADUATION_PROJECT\GRADUATION_PROJECT\ZOMBIE\01. PROJECT\ENGINE\PATHMGR.CPP
^C:\USERS\YAJUN\DESKTOP\GRADUATION_PROJECT\GRADUATION_PROJECT\GRADUATION_PROJECT\ZOMBIE\01. PROJECT\ENGINE\PLAYERSCRIPT.CPP
/c /ZI /JMC /nologo /W3 /WX- /diagnostics:column /sdl /Od /D _DEBUG /D _LIB /D _UNICODE /D UNICODE /Gm- /EHsc /RTC1 /MDd /GS /fp:precise /permissive- /Zc:wchar_t /Zc:forScope /Zc:inline /Yu"stdafx.h" /Fp"X64\DEBUG\ENGINE_DEBUG.PCH" /Fo"X64\DEBUG\\" /Fd"X64\DEBUG\ENGINE.PDB" /Gd /TP /FC C:\USERS\YAJUN\DESKTOP\GRADUATION_PROJECT\GRADUATION_PROJECT\GRADUATION_PROJECT\ZOMBIE\01. PROJECT\ENGINE\PLAYERSCRIPT.CPP
^C:\USERS\YAJUN\DESKTOP\GRADUATION_PROJECT\GRADUATION_PROJECT\GRADUATION_PROJECT\ZOMBIE\01. PROJECT\ENGINE\RENDERMGR.CPP
/c /ZI /JMC /nologo /W3 /WX- /diagnostics:column /sdl /Od /D _DEBUG /D _LIB /D _UNICODE /D UNICODE /Gm- /EHsc /RTC1 /MDd /GS /fp:precise /permissive- /Zc:wchar_t /Zc:forScope /Zc:inline /Yu"stdafx.h" /Fp"X64\DEBUG\ENGINE_DEBUG.PCH" /Fo"X64\DEBUG\\" /Fd"X64\DEBUG\ENGINE.PDB" /Gd /TP /FC C:\USERS\YAJUN\DESKTOP\GRADUATION_PROJECT\GRADUATION_PROJECT\GRADUATION_PROJECT\ZOMBIE\01. PROJECT\ENGINE\RENDERMGR.CPP
^C:\USERS\YAJUN\DESKTOP\GRADUATION_PROJECT\GRADUATION_PROJECT\GRADUATION_PROJECT\ZOMBIE\01. PROJECT\ENGINE\RENDERMGRINIT.CPP
/c /ZI /JMC /nologo /W3 /WX- /diagnostics:column /sdl /Od /D _DEBUG /D _LIB /D _UNICODE /D UNICODE /Gm- /EHsc /RTC1 /MDd /GS /fp:precise /permissive- /Zc:wchar_t /Zc:forScope /Zc:inline /Yu"stdafx.h" /Fp"X64\DEBUG\ENGINE_DEBUG.PCH" /Fo"X64\DEBUG\\" /Fd"X64\DEBUG\ENGINE.PDB" /Gd /TP /FC C:\USERS\YAJUN\DESKTOP\GRADUATION_PROJECT\GRADUATION_PROJECT\GRADUATION_PROJECT\ZOMBIE\01. PROJECT\ENGINE\RENDERMGRINIT.CPP
^C:\USERS\YAJUN\DESKTOP\GRADUATION_PROJECT\GRADUATION_PROJECT\GRADUATION_PROJECT\ZOMBIE\01. PROJECT\ENGINE\RESMGR.CPP
/c /ZI /JMC /nologo /W3 /WX- /diagnostics:column /sdl /Od /D _DEBUG /D _LIB /D _UNICODE /D UNICODE /Gm- /EHsc /RTC1 /MDd /GS /fp:precise /permissive- /Zc:wchar_t /Zc:forScope /Zc:inline /Yu"stdafx.h" /Fp"X64\DEBUG\ENGINE_DEBUG.PCH" /Fo"X64\DEBUG\\" /Fd"X64\DEBUG\ENGINE.PDB" /Gd /TP /FC C:\USERS\YAJUN\DESKTOP\GRADUATION_PROJECT\GRADUATION_PROJECT\GRADUATION_PROJECT\ZOMBIE\01. PROJECT\ENGINE\RESMGR.CPP
^C:\USERS\YAJUN\DESKTOP\GRADUATION_PROJECT\GRADUATION_PROJECT\GRADUATION_PROJECT\ZOMBIE\01. PROJECT\ENGINE\RESMGRINIT.CPP
/c /ZI /JMC /nologo /W3 /WX- /diagnostics:column /sdl /Od /D _DEBUG /D _LIB /D _UNICODE /D UNICODE /Gm- /EHsc /RTC1 /MDd /GS /fp:precise /permissive- /Zc:wchar_t /Zc:forScope /Zc:inline /Yu"stdafx.h" /Fp"X64\DEBUG\ENGINE_DEBUG.PCH" /Fo"X64\DEBUG\\" /Fd"X64\DEBUG\ENGINE.PDB" /Gd /TP /FC C:\USERS\YAJUN\DESKTOP\GRADUATION_PROJECT\GRADUATION_PROJECT\GRADUATION_PROJECT\ZOMBIE\01. PROJECT\ENGINE\RESMGRINIT.CPP
^C:\USERS\YAJUN\DESKTOP\GRADUATION_PROJECT\GRADUATION_PROJECT\GRADUATION_PROJECT\ZOMBIE\01. PROJECT\ENGINE\RESOURCE.CPP
/c /ZI /JMC /nologo /W3 /WX- /diagnostics:column /sdl /Od /D _DEBUG /D _LIB /D _UNICODE /D UNICODE /Gm- /EHsc /RTC1 /MDd /GS /fp:precise /permissive- /Zc:wchar_t /Zc:forScope /Zc:inline /Yu"stdafx.h" /Fp"X64\DEBUG\ENGINE_DEBUG.PCH" /Fo"X64\DEBUG\\" /Fd"X64\DEBUG\ENGINE.PDB" /Gd /TP /FC C:\USERS\YAJUN\DESKTOP\GRADUATION_PROJECT\GRADUATION_PROJECT\GRADUATION_PROJECT\ZOMBIE\01. PROJECT\ENGINE\RESOURCE.CPP
^C:\USERS\YAJUN\DESKTOP\GRADUATION_PROJECT\GRADUATION_PROJECT\GRADUATION_PROJECT\ZOMBIE\01. PROJECT\ENGINE\ROARSHOTSCRIPT.CPP
/c /ZI /JMC /nologo /W3 /WX- /diagnostics:column /sdl /Od /D _DEBUG /D _LIB /D _UNICODE /D UNICODE /Gm- /EHsc /RTC1 /MDd /GS /fp:precise /permissive- /Zc:wchar_t /Zc:forScope /Zc:inline /Yu"stdafx.h" /Fp"X64\DEBUG\ENGINE_DEBUG.PCH" /Fo"X64\DEBUG\\" /Fd"X64\DEBUG\ENGINE.PDB" /Gd /TP /FC C:\USERS\YAJUN\DESKTOP\GRADUATION_PROJECT\GRADUATION_PROJECT\GRADUATION_PROJECT\ZOMBIE\01. PROJECT\ENGINE\ROARSHOTSCRIPT.CPP
^C:\USERS\YAJUN\DESKTOP\GRADUATION_PROJECT\GRADUATION_PROJECT\GRADUATION_PROJECT\ZOMBIE\01. PROJECT\ENGINE\SCENE.CPP
/c /ZI /JMC /nologo /W3 /WX- /diagnostics:column /sdl /Od /D _DEBUG /D _LIB /D _UNICODE /D UNICODE /Gm- /EHsc /RTC1 /MDd /GS /fp:precise /permissive- /Zc:wchar_t /Zc:forScope /Zc:inline /Yu"stdafx.h" /Fp"X64\DEBUG\ENGINE_DEBUG.PCH" /Fo"X64\DEBUG\\" /Fd"X64\DEBUG\ENGINE.PDB" /Gd /TP /FC C:\USERS\YAJUN\DESKTOP\GRADUATION_PROJECT\GRADUATION_PROJECT\GRADUATION_PROJECT\ZOMBIE\01. PROJECT\ENGINE\SCENE.CPP
^C:\USERS\YAJUN\DESKTOP\GRADUATION_PROJECT\GRADUATION_PROJECT\GRADUATION_PROJECT\ZOMBIE\01. PROJECT\ENGINE\SCENEMGR.CPP
/c /ZI /JMC /nologo /W3 /WX- /diagnostics:column /sdl /Od /D _DEBUG /D _LIB /D _UNICODE /D UNICODE /Gm- /EHsc /RTC1 /MDd /GS /fp:precise /permissive- /Zc:wchar_t /Zc:forScope /Zc:inline /Yu"stdafx.h" /Fp"X64\DEBUG\ENGINE_DEBUG.PCH" /Fo"X64\DEBUG\\" /Fd"X64\DEBUG\ENGINE.PDB" /Gd /TP /FC C:\USERS\YAJUN\DESKTOP\GRADUATION_PROJECT\GRADUATION_PROJECT\GRADUATION_PROJECT\ZOMBIE\01. PROJECT\ENGINE\SCENEMGR.CPP
^C:\USERS\YAJUN\DESKTOP\GRADUATION_PROJECT\GRADUATION_PROJECT\GRADUATION_PROJECT\ZOMBIE\01. PROJECT\ENGINE\SCRIPT.CPP
/c /ZI /JMC /nologo /W3 /WX- /diagnostics:column /sdl /Od /D _DEBUG /D _LIB /D _UNICODE /D UNICODE /Gm- /EHsc /RTC1 /MDd /GS /fp:precise /permissive- /Zc:wchar_t /Zc:forScope /Zc:inline /Yu"stdafx.h" /Fp"X64\DEBUG\ENGINE_DEBUG.PCH" /Fo"X64\DEBUG\\" /Fd"X64\DEBUG\ENGINE.PDB" /Gd /TP /FC C:\USERS\YAJUN\DESKTOP\GRADUATION_PROJECT\GRADUATION_PROJECT\GRADUATION_PROJECT\ZOMBIE\01. PROJECT\ENGINE\SCRIPT.CPP
^C:\USERS\YAJUN\DESKTOP\GRADUATION_PROJECT\GRADUATION_PROJECT\GRADUATION_PROJECT\ZOMBIE\01. PROJECT\ENGINE\SHADER.CPP
/c /ZI /JMC /nologo /W3 /WX- /diagnostics:column /sdl /Od /D _DEBUG /D _LIB /D _UNICODE /D UNICODE /Gm- /EHsc /RTC1 /MDd /GS /fp:precise /permissive- /Zc:wchar_t /Zc:forScope /Zc:inline /Yu"stdafx.h" /Fp"X64\DEBUG\ENGINE_DEBUG.PCH" /Fo"X64\DEBUG\\" /Fd"X64\DEBUG\ENGINE.PDB" /Gd /TP /FC C:\USERS\YAJUN\DESKTOP\GRADUATION_PROJECT\GRADUATION_PROJECT\GRADUATION_PROJECT\ZOMBIE\01. PROJECT\ENGINE\SHADER.CPP
^C:\USERS\YAJUN\DESKTOP\GRADUATION_PROJECT\GRADUATION_PROJECT\GRADUATION_PROJECT\ZOMBIE\01. PROJECT\ENGINE\SIMPLEMATH.CPP
/c /ZI /JMC /nologo /W3 /WX- /diagnostics:column /sdl /Od /D _DEBUG /D _LIB /D _UNICODE /D UNICODE /Gm- /EHsc /RTC1 /MDd /GS /fp:precise /permissive- /Zc:wchar_t /Zc:forScope /Zc:inline /Yu"stdafx.h" /Fp"X64\DEBUG\ENGINE_DEBUG.PCH" /Fo"X64\DEBUG\\" /Fd"X64\DEBUG\ENGINE.PDB" /Gd /TP /FC C:\USERS\YAJUN\DESKTOP\GRADUATION_PROJECT\GRADUATION_PROJECT\GRADUATION_PROJECT\ZOMBIE\01. PROJECT\ENGINE\SIMPLEMATH.CPP
^C:\USERS\YAJUN\DESKTOP\GRADUATION_PROJECT\GRADUATION_PROJECT\GRADUATION_PROJECT\ZOMBIE\01. PROJECT\ENGINE\SOUND.CPP
/c /ZI /JMC /nologo /W3 /WX- /diagnostics:column /sdl /Od /D _DEBUG /D _LIB /D _UNICODE /D UNICODE /Gm- /EHsc /RTC1 /MDd /GS /fp:precise /permissive- /Zc:wchar_t /Zc:forScope /Zc:inline /Yu"stdafx.h" /Fp"X64\DEBUG\ENGINE_DEBUG.PCH" /Fo"X64\DEBUG\\" /Fd"X64\DEBUG\ENGINE.PDB" /Gd /TP /FC C:\USERS\YAJUN\DESKTOP\GRADUATION_PROJECT\GRADUATION_PROJECT\GRADUATION_PROJECT\ZOMBIE\01. PROJECT\ENGINE\SOUND.CPP
^C:\USERS\YAJUN\DESKTOP\GRADUATION_PROJECT\GRADUATION_PROJECT\GRADUATION_PROJECT\ZOMBIE\01. PROJECT\ENGINE\STARTSCENESCRIPT.CPP
/c /ZI /JMC /nologo /W3 /WX- /diagnostics:column /sdl /Od /D _DEBUG /D _LIB /D _UNICODE /D UNICODE /Gm- /EHsc /RTC1 /MDd /GS /fp:precise /permissive- /Zc:wchar_t /Zc:forScope /Zc:inline /Yu"stdafx.h" /Fp"X64\DEBUG\ENGINE_DEBUG.PCH" /Fo"X64\DEBUG\\" /Fd"X64\DEBUG\ENGINE.PDB" /Gd /TP /FC C:\USERS\YAJUN\DESKTOP\GRADUATION_PROJECT\GRADUATION_PROJECT\GRADUATION_PROJECT\ZOMBIE\01. PROJECT\ENGINE\STARTSCENESCRIPT.CPP
^C:\USERS\YAJUN\DESKTOP\GRADUATION_PROJECT\GRADUATION_PROJECT\GRADUATION_PROJECT\ZOMBIE\01. PROJECT\ENGINE\STRUCTUREDBUFFER.CPP
/c /ZI /JMC /nologo /W3 /WX- /diagnostics:column /sdl /Od /D _DEBUG /D _LIB /D _UNICODE /D UNICODE /Gm- /EHsc /RTC1 /MDd /GS /fp:precise /permissive- /Zc:wchar_t /Zc:forScope /Zc:inline /Yu"stdafx.h" /Fp"X64\DEBUG\ENGINE_DEBUG.PCH" /Fo"X64\DEBUG\\" /Fd"X64\DEBUG\ENGINE.PDB" /Gd /TP /FC C:\USERS\YAJUN\DESKTOP\GRADUATION_PROJECT\GRADUATION_PROJECT\GRADUATION_PROJECT\ZOMBIE\01. PROJECT\ENGINE\STRUCTUREDBUFFER.CPP
^C:\USERS\YAJUN\DESKTOP\GRADUATION_PROJECT\GRADUATION_PROJECT\GRADUATION_PROJECT\ZOMBIE\01. PROJECT\ENGINE\TESTSCRIPT.CPP
/c /ZI /JMC /nologo /W3 /WX- /diagnostics:column /sdl /Od /D _DEBUG /D _LIB /D _UNICODE /D UNICODE /Gm- /EHsc /RTC1 /MDd /GS /fp:precise /permissive- /Zc:wchar_t /Zc:forScope /Zc:inline /Yu"stdafx.h" /Fp"X64\DEBUG\ENGINE_DEBUG.PCH" /Fo"X64\DEBUG\\" /Fd"X64\DEBUG\ENGINE.PDB" /Gd /TP /FC C:\USERS\YAJUN\DESKTOP\GRADUATION_PROJECT\GRADUATION_PROJECT\GRADUATION_PROJECT\ZOMBIE\01. PROJECT\ENGINE\TESTSCRIPT.CPP
^C:\USERS\YAJUN\DESKTOP\GRADUATION_PROJECT\GRADUATION_PROJECT\GRADUATION_PROJECT\ZOMBIE\01. PROJECT\ENGINE\TEXTURE.CPP
/c /ZI /JMC /nologo /W3 /WX- /diagnostics:column /sdl /Od /D _DEBUG /D _LIB /D _UNICODE /D UNICODE /Gm- /EHsc /RTC1 /MDd /GS /fp:precise /permissive- /Zc:wchar_t /Zc:forScope /Zc:inline /Yu"stdafx.h" /Fp"X64\DEBUG\ENGINE_DEBUG.PCH" /Fo"X64\DEBUG\\" /Fd"X64\DEBUG\ENGINE.PDB" /Gd /TP /FC C:\USERS\YAJUN\DESKTOP\GRADUATION_PROJECT\GRADUATION_PROJECT\GRADUATION_PROJECT\ZOMBIE\01. PROJECT\ENGINE\TEXTURE.CPP
^C:\USERS\YAJUN\DESKTOP\GRADUATION_PROJECT\GRADUATION_PROJECT\GRADUATION_PROJECT\ZOMBIE\01. PROJECT\ENGINE\TIMEMGR.CPP
/c /ZI /JMC /nologo /W3 /WX- /diagnostics:column /sdl /Od /D _DEBUG /D _LIB /D _UNICODE /D UNICODE /Gm- /EHsc /RTC1 /MDd /GS /fp:precise /permissive- /Zc:wchar_t /Zc:forScope /Zc:inline /Yu"stdafx.h" /Fp"X64\DEBUG\ENGINE_DEBUG.PCH" /Fo"X64\DEBUG\\" /Fd"X64\DEBUG\ENGINE.PDB" /Gd /TP /FC C:\USERS\YAJUN\DESKTOP\GRADUATION_PROJECT\GRADUATION_PROJECT\GRADUATION_PROJECT\ZOMBIE\01. PROJECT\ENGINE\TIMEMGR.CPP
^C:\USERS\YAJUN\DESKTOP\GRADUATION_PROJECT\GRADUATION_PROJECT\GRADUATION_PROJECT\ZOMBIE\01. PROJECT\ENGINE\TOMBSCRIPT.CPP
/c /ZI /JMC /nologo /W3 /WX- /diagnostics:column /sdl /Od /D _DEBUG /D _LIB /D _UNICODE /D UNICODE /Gm- /EHsc /RTC1 /MDd /GS /fp:precise /permissive- /Zc:wchar_t /Zc:forScope /Zc:inline /Yu"stdafx.h" /Fp"X64\DEBUG\ENGINE_DEBUG.PCH" /Fo"X64\DEBUG\\" /Fd"X64\DEBUG\ENGINE.PDB" /Gd /TP /FC C:\USERS\YAJUN\DESKTOP\GRADUATION_PROJECT\GRADUATION_PROJECT\GRADUATION_PROJECT\ZOMBIE\01. PROJECT\ENGINE\TOMBSCRIPT.CPP
^C:\USERS\YAJUN\DESKTOP\GRADUATION_PROJECT\GRADUATION_PROJECT\GRADUATION_PROJECT\ZOMBIE\01. PROJECT\ENGINE\TOOLCAMSCRIPT.CPP
/c /ZI /JMC /nologo /W3 /WX- /diagnostics:column /sdl /Od /D _DEBUG /D _LIB /D _UNICODE /D UNICODE /Gm- /EHsc /RTC1 /MDd /GS /fp:precise /permissive- /Zc:wchar_t /Zc:forScope /Zc:inline /Yu"stdafx.h" /Fp"X64\DEBUG\ENGINE_DEBUG.PCH" /Fo"X64\DEBUG\\" /Fd"X64\DEBUG\ENGINE.PDB" /Gd /TP /FC C:\USERS\YAJUN\DESKTOP\GRADUATION_PROJECT\GRADUATION_PROJECT\GRADUATION_PROJECT\ZOMBIE\01. PROJECT\ENGINE\TOOLCAMSCRIPT.CPP
^C:\USERS\YAJUN\DESKTOP\GRADUATION_PROJECT\GRADUATION_PROJECT\GRADUATION_PROJECT\ZOMBIE\01. PROJECT\ENGINE\TPARTICLESYSTEM.CPP
/c /ZI /JMC /nologo /W3 /WX- /diagnostics:column /sdl /Od /D _DEBUG /D _LIB /D _UNICODE /D UNICODE /Gm- /EHsc /RTC1 /MDd /GS /fp:precise /permissive- /Zc:wchar_t /Zc:forScope /Zc:inline /Yu"stdafx.h" /Fp"X64\DEBUG\ENGINE_DEBUG.PCH" /Fo"X64\DEBUG\\" /Fd"X64\DEBUG\ENGINE.PDB" /Gd /TP /FC C:\USERS\YAJUN\DESKTOP\GRADUATION_PROJECT\GRADUATION_PROJECT\GRADUATION_PROJECT\ZOMBIE\01. PROJECT\ENGINE\TPARTICLESYSTEM.CPP
^C:\USERS\YAJUN\DESKTOP\GRADUATION_PROJECT\GRADUATION_PROJECT\GRADUATION_PROJECT\ZOMBIE\01. PROJECT\ENGINE\TRANSFORM.CPP
/c /ZI /JMC /nologo /W3 /WX- /diagnostics:column /sdl /Od /D _DEBUG /D _LIB /D _UNICODE /D UNICODE /Gm- /EHsc /RTC1 /MDd /GS /fp:precise /permissive- /Zc:wchar_t /Zc:forScope /Zc:inline /Yu"stdafx.h" /Fp"X64\DEBUG\ENGINE_DEBUG.PCH" /Fo"X64\DEBUG\\" /Fd"X64\DEBUG\ENGINE.PDB" /Gd /TP /FC C:\USERS\YAJUN\DESKTOP\GRADUATION_PROJECT\GRADUATION_PROJECT\GRADUATION_PROJECT\ZOMBIE\01. PROJECT\ENGINE\TRANSFORM.CPP
